{
  "FormattingOptions": {
    "NewLinesForBracesInTypes": false,
    "NewLinesForBracesInMethods": false,
    "NewLinesForBracesInProperties": false,
    "NewLinesForBracesInAccessors": false,
    "NewLinesForBracesInAnonymousMethods": false,
    "NewLinesForBracesInControlBlocks": false,
    "NewLinesForBracesInAnonymousTypes": false,
    "NewLinesForBracesInObjectCollectionArrayInitializers": false,
    "NewLinesForBracesInLambdaExpressionBody": false,
    "NewLineForMembersInObjectInit": false,
    "NewLineForMembersInAnonymousTypes": false
  },
  "MsBuild": {
    "UseLegacySdkResolver": true
  }
}
